questao5/simulation/qsim/questao5.msim.vcd
$comment
	File created using the following command:
		vcd file questao5.msim.vcd -direction
$end
$date
	Wed Apr 12 23:07:26 2023
$end
$version
	ModelSim Version 2020.1
$end
$timescale
	1ps
$end

$scope module questao5_vlg_vec_tst $end
$var reg 1 ! Input $end
$var wire 1 " Output $end

$scope module i1 $end
$var wire 1 # gnd $end
$var wire 1 $ vcc $end
$var wire 1 % unknown $end
$var tri1 1 & devclrn $end
$var tri1 1 ' devpor $end
$var tri1 1 ( devoe $end
$var wire 1 ) Output~output_o $end
$var wire 1 * Input~input_o $end
$var wire 1 + est~0_combout $end
$var wire 1 , est~q $end
$upscope $end
$upscope $end
$enddefinitions $end
#0
$dumpvars
0!
1"
0#
1$
x%
1&
1'
1(
1)
0*
1+
0,
$end
#100000
1!
1*
#200000
0!
0*
1,
0)
0"
0+
#300000
1!
1*
#400000
0!
0*
0,
1)
1"
1+
#500000
1!
1*
#600000
0!
0*
1,
0)
0"
0+
#700000
1!
1*
#800000
0!
0*
0,
1)
1"
1+
#900000
1!
1*
